.Xil/Vivado-12860-Neptunium/hw_ila_data_1/zip_work/waveform.vcd
$date
        2020-Sep-17 09:57:01
$end
$version
        Vivado v2018.3 (64-bit)
$end
$timescale
        1ps
$end
$scope module dut $end
$var reg 1 " aquila_soc_i/aquila_0/inst/aquila_core/Memory_Management/read_len_1 $end
$var reg 2 # aquila_soc_i/aquila_0/inst/aquila_core/Memory_Management/read_len_2 [2:1] $end
$var reg 1 % aquila_soc_i/aquila_0/inst/aquila_core/Memory_Management/read_len $end
$var reg 4 & aquila_soc_i/aquila_0/inst/aquila_core/D_Cache/S_nxt [3:0] $end
$var reg 4 * aquila_soc_i/aquila_0/inst/aquila_core/D_Cache/S [3:0] $end
$var reg 4 . aquila_soc_i/aquila_0/inst/aquila_core/Memory_Management/allocator/FREE_ST [3:0] $end
$var reg 32 2 aquila_soc_i/aquila_0/inst/aquila_core/Memory_Management/dmm_unit_addr [31:0] $end
$var reg 256 R aquila_soc_i/aquila_0/inst/aquila_core/Memory_Management/dmm_unit_datain [255:0] $end
$var reg 256 8$ aquila_soc_i/aquila_0/inst/aquila_core/Memory_Management/dmm_unit_dataout [255:0] $end
$var reg 4 |& aquila_soc_i/aquila_0/inst/aquila_core/Memory_Management/allocator/MAIN_ST [3:0] $end
$var reg 8 "' aquila_soc_i/aquila_0/inst/aquila_core/Memory_Management/dmm_unit_size [7:0] $end
$var reg 1 *' aquila_soc_i/aquila_0/inst/aquila_core/dcache_is_flushing $end
$var reg 1 +' aquila_soc_i/aquila_0/inst/aquila_core/Memory_Management/dmm_unit_done $end
$var reg 1 ,' aquila_soc_i/aquila_0/inst/aquila_core/Memory_Management/dmm_unit_rw $end
$var reg 1 -' aquila_soc_i/aquila_0/inst/aquila_core/Memory_Management/dmm_unit_strobe $end
$var reg 1 .' aquila_soc_i/aquila_0/inst/aquila_core/Memory_Management/free_request $end
$var reg 1 /' aquila_soc_i/aquila_0/inst/aquila_core/Memory_Management/free_request_o $end
$var reg 1 0' u_ila_0_stall_i $end
$var reg 1 1' _TRIGGER $end
$var reg 1 2' _WINDOW $end
$var reg 1 3' _GAP $end
$upscope $end
$enddefinitions $end
#0
$dumpvars
0"
b0 #
0%
b0 &
b0 *
b0 .
b0 2
b0 R
b0 8$
b1 |&
b1000 "'
0*'
0+'
0,'
0-'
0.'
0/'
10'
01'
12'
03'
$end
#1
00'
#2
b1 &
10'
#3
b0 &
b1 *
#4
b0 *
00'
#6
10'
#7
00'
#9
10'
#10
00'
#13
b1 &
10'
#14
b0 &
b1 *
#15
b0 *
00'
#17
10'
#18
00'
#21
10'
#22
00'
#25
10'
#26
00'
#27
b1 &
10'
#28
b0 &
b1 *
#29
b0 *
00'
#31
b1 &
10'
#32
b0 &
b1 *
#33
b0 *
00'
#35
b1 &
10'
#36
b0 &
b1 *
#37
b0 *
00'
#38
b1 &
10'
#39
b0 &
b1 *
#40
b0 *
00'
#43
10'
#44
00'
#47
b1 &
10'
#48
b0 &
b1 *
#49
b0 *
00'
#55
10'
#56
00'
#60
b1 &
10'
#61
b0 &
b1 *
#62
b0 *
00'
#63
b1 &
10'
#64
b0 &
b1 *
#65
b0 *
00'
#66
b1 &
10'
#67
b0 &
b1 *
#68
b0 *
00'
#69
b1 &
10'
#70
b0 &
b1 *
#71
b0 *
00'
#72
10'
#73
00'
#77
10'
#78
00'
#80
10'
#81
00'
#86
10'
#87
00'
#92
10'
#93
00'
#101
10'
#102
00'
#107
b1 &
10'
#108
b0 &
b1 *
#109
b0 *
00'
#113
10'
#114
00'
#158
10'
#159
00'
#205
10'
#206
00'
#210
10'
#211
00'
#292
10'
#293
00'
#298
10'
#299
00'
#301
10'
#302
00'
#308
10'
#309
00'
#311
10'
#312
00'
#317
b1 &
10'
#318
b0 &
b1 *
#319
b0 *
00'
#320
b1 &
10'
#321
b0 &
b1 *
#322
b0 *
00'
#323
10'
#324
00'
#326
b1 &
10'
#327
b0 &
b1 *
#328
b0 *
00'
#330
10'
#331
00'
#335
b1 &
10'
#336
b0 &
b1 *
#337
b0 *
00'
#339
b1 &
10'
#340
b0 &
b1 *
#341
b0 *
00'
#342
10'
#387
00'
#388
10'
#389
00'
#391
b1 &
10'
#392
b0 &
b1 *
#393
b0 *
00'
#395
10'
#396
00'
#398
10'
#443
00'
#444
b1 &
10'
#445
b0 &
b1 *
#446
b0 *
00'
#451
b1 &
10'
#452
b0 &
b1 *
#453
b0 *
00'
#456
10'
#457
00'
#459
10'
#504
00'
#505
10'
#506
00'
#507
b1 &
10'
#508
b0 &
b1 *
#509
b0 *
00'
#511
b1 &
#512
b110 &
b1 *
1*'
10'
11'
#513
b110 *
#514
b10000000000000011100000000000000 2
b110001101100101011010000100001101101000011101110010000001101011011010110010000001110100011000010010000001100100011011100110100101010100001000000110011001101111001000000111000001100001011100100000000000000000000010100000101001100101011101000110111001001001 8$
1,'
1-'
#547
b111 &
b1101100000001000010010010000101101001101000111010010101010000001111110011100100010011000101110010100010100101011011100100100000111011100111110110101011110100100011110110000101111100000000001111110010001111011000011110110100111101110111110111000001100100111 R
1+'
#548
b110 &
b111 *
b0 R
0+'
0-'
#549
b110 *
b0 2
b0 8$
0,'
#550
b10000000000000011100000000100000 2
b111000001110101011100100111001000001010011001000110010101110100000000000000000000000000000000000110010101100011011110000100010101101111011010010111010001110000011000110110111100100000011011100111001001110010011101010110001100000000000010100110010001100101 8$
1,'
1-'
#583
b111 &
b1101100000001000010010010000101101001101000111010010101010000001111110011100100010011000101110010100010100101011011100100100000111011100111110110101011110100100011110110000101111100000000001111110010001111011000011110110100111101110111110111000001100100111 R
1+'
#584
b110 &
b111 *
b0 R
0+'
0-'
#585
b110 *
b0 2
b0 8$
0,'
#586
b10000000000000011100000001000000 2
b111001001100101011100110101010101100110011011110111001100100000011100100110000101110111011101000110111001101001001000000110010101110010011100100110010101110100000010100111010001110000011101010000000000000000000000000000000001100101011100000111010101010011 8$
1,'
1-'
#619
b111 &
b1101100000001000010010010000101101001101000111010010101010000001111110011100100010011000101110010100010100101011011100100100000111011100111110110101011110100100011110110000101111100000000001111110010001111011000011110110100111101110111110111000001100100111 R
1+'
#620
b110 &
b111 *
b0 R
0+'
0-'
#621
b110 *
b0 2
b0 8$
0,'
#622
b10000000000000011100000001100000 2
b111001101101001011101100111001001110011001000000111001001101111011101110111010001100110011011110010000001100101011100100110000101100101011101000110111001101001011100000111010101110010011100100000000000000000000010100111010001101000011000110110000101001101 8$
1,'
1-'
#655
b111 &
b1101100000001000010010010000101101001101000111010010101010000001111110011100100010011000101110010100010100101011011100100100000111011100111110110101011110100100011110110000101111100000000001111110010001111011000011110110100111101110111110111000001100100111 R
1+'
#656
b110 &
b111 *
b0 R
0+'
0-'
#657
b110 *
b0 2
b0 8$
0,'
#658
b10000000000000011100000010000000 2
b10000001100101011011100110100101110100011001100110111101110011011001010111001001100001011101110111010001101110011010010010000001110101011100100111001001100101000000000000101001110100011100000111001001100101011100110101010101101101011010010111010000100000 8$
1,'
1-'
#691
b111 &
b1101100000001000010010010000101101001101000111010010101010000001111110011100100010011000101110010100010100101011011100100100000111011100111110110101011110100100011110110000101111100000000001111110010001111011000011110110100111101110111110111000001100100111 R
1+'
#692
b110 &
b111 *
b0 R
0+'
0-'
#693
b110 *
b0 2
b0 8$
0,'
#694
b10000000000000011100000010100000 2
b110100100100000011100100110010101110010011001010111010001101110011101000111000001110101011100100000000000000000000000000000101001100101011100000111010101010011011100110110100101110110011100100111010000100000011100100110111101110010011001010110110101101001 8$
1,'
1-'
#727
b111 &
b1101100000001000010010010000101101001101000111010010101010000001111110011100100010011000101110010100010100101011011100100100000111011100111110110101011110100100011110110000101111100000000001111110010001111011000011110110100111101110111110111000001100100111 R
1+'
#728
b110 &
b111 *
b0 R
0+'
0-'
#729
b110 *
b0 2
b0 8$
0,'
#730
b10000000000000011100000011000000 2
b111010001101110011010010010000001110101011100100111001001100101000000000000101001110100011100000110100001100011011000010100110100100000011001010110111001101001011001010110110101101001011101000110111001101001001000000111001001110010011100100110010101110100 8$
1,'
1-'
#763
b111 &
b1101100000001000010010010000101101001101000111010010101010000001111110011100100010011000101110010100010100101011011100100100000111011100111110110101011110100100011110110000101111100000000001111110010001111011000011110110100111101110111110111000001100100111 R
1+'
#764
b110 &
b111 *
b0 R
0+'
0-'
#765
b110 *
b0 2
b0 8$
0,'
#766
b10000000000000011100000011100000 2
b101001110100011100000111010100000000000000000000000000000000011100100110010101110011010101010111010001111000011001010010000001100001011011100111001001100101011011100110100100100000011011000111001001110010011001010111010000001010011101000111000001110101 8$
1,'
1-'
#799
b111 &
b1101100000001000010010010000101101001101000111010010101010000001111110011100100010011000101110010100010100101011011100100100000111011100111110110101011110100100011110110000101111100000000001111110010001111011000011110110100111101110111110111000001100100111 R
1+'
#800
b110 &
b111 *
b0 R
0+'
0-'
#801
b110 *
b0 2
b0 8$
0,'
#802
b10000000000000011100000100000000 2
b1100001011100000111010101010011011010010111011001110010011001010010000001110010011011110111001101100101011101000111100001100101011011000110000101101110011100100111010001101110011010010010000001110101011100100111001001100101 8$
1,'
1-'
#835
b111 &
b1101100000001000010010010000101101001101000111010010101010000001111110011100100010011000101110010100010100101011011100100100000111011100111110110101011110100100011110110000101111100000000001111110010001111011000011110110100111101110111110111000001100100111 R
1+'
#836
b110 &
b111 *
b0 R
0+'
0-'
#837
b110 *
b0 2
b0 8$
0,'
#838
b10000000000000011100000100100000 2
b1010011101000111000001101000011000110110000101001101001000000110010101101110011010010110010101110100011110000110010101101100011000010110111001110010011101000110111001101001001000000111010101110010011100100110010100000000000010100111010001110000 8$
1,'
1-'
#871
b111 &
b1101100000001000010010010000101101001101000111010010101010000001111110011100100010011000101110010100010100101011011100100100000111011100111110110101011110100100011110110000101111100000000001111110010001111011000011110110100111101110111110111000001100100111 R
1+'
#872
b110 &
b111 *
b0 R
0+'
0-'
#873
b110 *
b0 2
b0 8$
0,'
#874
b10000000000000011100000101000000 2
b110111001101011011011100101010100100000011011100111011101101111011001010111010001101110011010010111000001110101011100100111001000000000000000000000101001110100011101000111001101101110010010010111010001100011011101010111001000100000011011100110111101101001 8$
1,'
1-'
#907
b111 &
b1101100000001000010010010000101101001101000111010010101010000001111110011100100010011000101110010100010100101011011100100100000111011100111110110101011110100100011110110000101111100000000001111110010001111011000011110110100111101110111110111000001100100111 R
1+'
#908
b110 &
b111 *
b0 R
0+'
0-'
#909
b110 *
b0 2
b0 8$
0,'
#910
b10000000000000011100000101100000 2
b111001001100100011001000110000100100000011100110111001101100101011000010111001101101001011011010110111001100111011010010110110000000000000010100110010001100101011101000111001101101110010010010111010001100011011101010111001000100000011011100110111101101001 8$
1,'
1-'
#944
b111 &
b1101100000001000010010010000101101001101000111010010101010000001111110011100100010011000101110010100010100101011011100100100000111011100111110110101011110100100011110110000101111100000000001111110010001111011000011110110100111101110111110111000001100100111 R
1+'
#945
b110 &
b111 *
b0 R
0+'
0-'
#946
b110 *
b0 2
b0 8$
0,'
#947
b10000000000000011100000110000000 2
b110010101100011011000110110000101100110001000000111001101110011011101000110110001110101011000010000000000000000000000000000101001100101011011000110110001001001001000000110110001100001011001110111010001110011011011100110100101110100011000110111010101110010 8$
1,'
1-'
#980
b111 &
b1101100000001000010010010000101101001101000111010010101010000001111110011100100010011000101110010100010100101011011100100100000111011100111110110101011110100100011110110000101111100000000001111110010001111011000011110110100111101110111110111000001100100111 R
1+'
#981
b110 &
b111 *
b0 R
0+'
0-'
#982
b110 *
b0 2
b0 8$
0,'
#983
b10000000000000011100000110100000 2
b101001101110011011110110100100000000000000000000000000000000010111110111001001110011011010010100001001011111011100110110100101101011011000010110010101110010011011100110100101101111011100000000000000000000000010100111010001100100011000010110111101001100 8$
1,'
1-'
#1016
b111 &
b1101100000001000010010010000101101001101000111010010101010000001111110011100100010011000101110010100010100101011011100100100000111011100111110110101011110100100011110110000101111100000000001111110010001111011000011110110100111101110111110111000001100100111 R
1+'
#1017
b110 &
b111 *
b0 R
0+'
0-'
#1018
b110 *
b0 2
b0 8$
0,'
#1019
b10000000000000011100000111000000 2
b110010001100100011000010010000001110011011100110110010101110010011100110110100101101101001000000110011101101001011011000110000100001010011001000110010101101110000000000000000000000000000000000110010001100001011011110100110001100011011000110110000100100000 8$
1,'
1-'
